<?xml version="1.0" encoding="UTF-8"?>
<!-- Generator: Adobe Illustrator 27.4.0, SVG Export Plug-In . SVG Version: 6.00 Build 0)  -->
<svg
	id="Ebene_1" style="enable-background:new 0 0 56 56;" version="1.1"
	viewBox="0 0 56 56" x="0px" xml:space="preserve" xmlns="http://www.w3.org/2000/svg" y="0px"
>
<style type="text/css">
	.st0 {
		fill: #FFCC00;
	}

	.st1 {
		fill: #FF0000;
	}
</style>
	<g id="Logo">
	<rect class="st0" height="56.000004" width="55.999996" x="0.000367" y="-0.000285"/>
		<polygon
			class="st1"
			points="26.444813,25.121939 26.444813,14.777493 15.32259,14.777493 15.32259,22.633049 7.778145,22.633049    7.778145,33.366386 15.32259,33.366386 15.32259,41.221939 26.444813,41.221939 26.444813,30.877495 23.800367,30.877495    23.800367,38.733047 17.967033,38.733047 17.967033,30.877495 10.422589,30.877495 10.422589,25.121939 17.967033,25.121939    17.967033,17.266382 23.800367,17.266382 23.800367,25.121939  "
		/>
		<path d="M41.659962,24.192696c0,1.876564-1.548973,3.340361-3.513401,3.340361h-2.990635v-6.455555h2.990639   C40.186604,21.077494,41.659962,22.391075,41.659962,24.192696z M39.431103,14.777493H28.000366v26.444447h7.15556v-7.855553   h4.275181c5.251015,0,9.331078-4.006624,9.331078-9.182213C48.76218,18.970772,44.606693,14.777493,39.431103,14.777493z"/>
</g>
</svg>
